time series
…
it is also possible to plot the comparative performance .

forecast_table %>% 
  modeltime_calibrate(test_data) %>% 
  modeltime_forecast(actual_data = test_data) 

## Using '.calibration_data' to forecast.

## # A tibble: 1,792 x 7
##    .model_id .model_desc .key   .index       .value .conf_lo .conf_hi
##        <int> <chr>       <fct>  <date>        <dbl>    <dbl>    <dbl>
##  1        NA ACTUAL      actual 2019-08-12 -0.0122        NA       NA
##  2        NA ACTUAL      actual 2019-08-13 -0.0428        NA       NA
##  3        NA ACTUAL      actual 2019-08-14 -0.0775        NA       NA
##  4        NA ACTUAL      actual 2019-08-15  0.0259        NA       NA
##  5        NA ACTUAL      actual 2019-08-16  0.00609       NA       NA
##  6        NA ACTUAL      actual 2019-08-17 -0.0137        NA       NA
##  7        NA ACTUAL      actual 2019-08-18  0.0111        NA       NA
##  8        NA ACTUAL      actual 2019-08-19  0.0551        NA       NA
##  9        NA ACTUAL      actual 2019-08-20 -0.0140        NA       NA
## 10        NA ACTUAL      actual 2019-08-21 -0.0581        NA       NA
## #  with 1,782 more rows
…
